<?xml version="1.0" encoding="utf-8"?>
<!-- Generator: Adobe Illustrator 25.4.1, SVG Export Plug-In . SVG Version: 6.00 Build 0)  -->
<svg version="1.1" id="Layer_1" xmlns="http://www.w3.org/2000/svg" xmlns:xlink="http://www.w3.org/1999/xlink" x="0px" y="0px"
	 viewBox="0 0 100 100" style="enable-background:new 0 0 100 100;" xml:space="preserve">
<style type="text/css">
	.st0{fill:#FFFFFF;}
</style>
<g>
	<path class="st0" d="M94,45.3c0-3.7-1.7-7.1-4.5-9.4c0.1-0.6,0.2-1.2,0.2-1.7c0-4.6-3.4-8.4-7.8-9c0.1-0.5,0.1-1,0.1-1.6
		c0-4.9-3.8-8.9-8.7-9.1c-0.1,0-0.2,0-0.2,0c0,0-0.1,0-0.1,0c0,0-0.1,0-0.1,0c-0.5,0-0.9,0-1.4,0.1c-0.8-4.5-4.8-7.8-9.4-7.8
		c-5.3,0-9.6,4.3-9.6,9.6v65.9c0,6.7,5.5,12.2,12.2,12.2c4.5,0,8.5-2.4,10.6-6.2c0.5,0.1,0.9,0.2,1.4,0.2c2.9,0.2,5.7-0.8,7.9-2.7
		s3.5-4.6,3.7-7.5c0.1-1.2-0.1-2.4-0.4-3.6c3.8-2.7,6-7,6-11.6c0-3.4-1.2-6.6-3.4-9.2C92.7,51.5,94,48.5,94,45.3z M90.9,63
		c0,3.5-1.6,6.7-4.3,8.8c-2-3.2-5.6-5.2-9.4-5.2c-0.8,0-1.5,0.7-1.5,1.5s0.7,1.5,1.5,1.5c3.3,0,6.4,2.1,7.6,5.2
		c0.4,1.1,0.6,2.2,0.5,3.3c-0.1,2.1-1.1,4.1-2.7,5.4c-1.6,1.4-3.6,2.1-5.8,2c-0.6,0-1.2-0.2-1.9-0.4c-0.7-0.2-1.5,0.1-1.8,0.8
		c-1.4,3.4-4.8,5.6-8.5,5.6c-5.1,0-9.2-4.1-9.2-9.2V16.4c0-3.7,3-6.6,6.6-6.6c3.4,0,6.2,2.6,6.6,5.9c-2.8,1.6-4.6,4.5-4.6,7.9
		c0,0.8,0.7,1.5,1.5,1.5s1.5-0.7,1.5-1.5c0-3.3,2.7-6.1,6-6.1c3.3,0.1,6,2.8,6,6.1c0,0.6-0.1,1.3-0.4,2c-0.1,0.2-0.1,0.3-0.1,0.5
		c0,0,0,0.1,0,0.1c0,0,0,0,0,0c-0.1,0.5,0,1,0.3,1.3s0.8,0.6,1.3,0.5c0.1,0,0.2,0,0.4,0c3.4,0,6.1,2.8,6.1,6.1
		c0,0.6-0.1,1.2-0.3,1.8c-0.2,0.6,0,1.3,0.6,1.7c2.4,1.6,3.9,4.3,4,7.2c0,0,0,0,0,0c0,5-4.1,9.1-9.1,9.1S72.7,50,72.7,45
		c0-0.8-0.7-1.5-1.5-1.5s-1.5,0.7-1.5,1.5c0,6.7,5.4,12.1,12.1,12.1c2.2,0,4.3-0.6,6.1-1.7C89.9,57.5,90.9,60.2,90.9,63z"/>
	<path class="st0" d="M38.2,6.8c-4.7,0-8.6,3.3-9.4,7.8c-0.5-0.1-0.9-0.1-1.4-0.1c0,0-0.1,0-0.1,0c0,0-0.1,0-0.1,0
		c-0.1,0-0.2,0-0.2,0c-4.8,0.3-8.7,4.2-8.7,9.1c0,0.5,0,1,0.1,1.6c-4.4,0.7-7.8,4.5-7.8,9c0,0.6,0.1,1.1,0.2,1.7
		c-2.8,2.3-4.5,5.7-4.5,9.4c0,3.2,1.3,6.2,3.5,8.5c-2.2,2.6-3.4,5.8-3.4,9.2c0,4.7,2.2,8.9,6,11.6c-0.3,1.2-0.5,2.4-0.4,3.6
		c0.2,2.9,1.5,5.6,3.7,7.5c2.2,1.9,5,2.9,7.9,2.7c0.5,0,0.9-0.1,1.4-0.2c2.1,3.8,6.2,6.2,10.6,6.2c6.7,0,12.2-5.5,12.2-12.2V16.4
		C47.8,11.1,43.5,6.8,38.2,6.8z M44.8,82.3c0,5.1-4.1,9.2-9.2,9.2c-3.7,0-7-2.2-8.5-5.6c-0.2-0.6-0.8-0.9-1.4-0.9
		c-0.2,0-0.3,0-0.5,0.1c-0.7,0.2-1.3,0.4-1.9,0.4c-2.1,0.1-4.2-0.6-5.8-2c-1.6-1.4-2.5-3.3-2.7-5.4c-0.1-1.2,0.1-2.3,0.6-3.5
		c0,0,0,0,0-0.1c1.3-3.1,4.2-5,7.6-5c0.8,0,1.5-0.7,1.5-1.5s-0.7-1.5-1.5-1.5c-3.9,0-7.5,2-9.5,5.2c-2.7-2.1-4.3-5.3-4.3-8.8
		c0-2.8,1.1-5.5,3-7.5c1.8,1.1,3.9,1.7,6.1,1.7c6.7,0,12.1-5.4,12.1-12.1c0-0.8-0.7-1.5-1.5-1.5s-1.5,0.7-1.5,1.5
		c0,5-4.1,9.1-9.1,9.1S9.3,50,9.3,45c0,0,0,0,0,0c0.1-2.9,1.6-5.6,4-7.2c0.6-0.4,0.8-1.1,0.6-1.7c-0.2-0.7-0.3-1.3-0.3-1.8
		c0-3.4,2.7-6.1,6.2-6.1c0,0,0,0,0,0c0.1,0,0.2,0,0.3,0c0.5,0,0.9-0.2,1.3-0.5c0.3-0.4,0.4-0.9,0.3-1.3c0,0,0,0,0,0c0,0,0-0.1,0-0.1
		c0-0.2,0-0.4-0.1-0.5c-0.2-0.7-0.4-1.4-0.4-2c0-3.3,2.7-6.1,6-6.1c3.3,0.1,6,2.8,6,6.1c0,0.8,0.7,1.5,1.5,1.5s1.5-0.7,1.5-1.5
		c0-3.4-1.9-6.4-4.6-7.9c0.4-3.3,3.2-5.9,6.6-5.9c3.7,0,6.6,3,6.6,6.6L44.8,82.3L44.8,82.3z"/>
</g>
</svg>
